Generic function to convert RMODFLOW objects to tibbles — rmf_as_tibble • RMODFLOW
…
The time steps (nstp column) are numbered from 1 to dim(array)[4]. Since in some cases, the rmf_4d_array does not represent all time steps of the simulation,
(e.g. output is only written during certain time steps), the nstp value might not correspond to the true time step number for which output was written.
In those cases, the time column might not give the correct cumulative time values if ts_time = TRUE. A warning will be thrown and the user should consider setting ts_time = FALSE
and calculate the exact cumulative modelled time with e.g. rmf_time_steps.

    Examples

m <- rmf_read(rmf_example_file('example-model.nam'), output = TRUE, verbose = FALSE)

# cbc
rmf_as_tibble(m$cbc, m$dis, fluxes = c('wells', 'flow_right_face'))

#> # A tibble: 3,604 x 15
#>       id value        x     y   top  botm  time  nstp totim pertim  kper  kstp
#>    <int> <dbl>    <dbl> <dbl> <dbl> <dbl> <dbl> <int> <dbl>  <dbl> <int> <int>
#>  1     1 38.0  5.51e-14  -100 0.105 -5.11     1     1     1      1     1     1
#>  2     1 38.0  6.12e-14     0 0.105 -5.11     1     1     1      1     1     1
#>  3     1 38.0  1.00e+ 2     0 0.105 -5.11     1     1     1      1     1     1
#>  4     1 38.0  1   e+ 2  -100 0.105 -5.11     1     1     1      1     1     1
#>  5     2 10.6  4.90e-14  -200 0.952 -5.95     1     1     1      1     1     1
#>  6     2 10.6  5.51e-14  -100 0.952 -5.95     1     1     1      1     1     1
#>  7     2 10.6  1   e+ 2  -100 0.952 -5.95     1     1     1      1     1     1
#>  8     2 10.6  1.00e+ 2  -200 0.952 -5.95     1     1     1      1     1     1
#>  9     3  3.74 4.29e-14  -300 1.36  -6.36     1     1     1      1     1     1
#> 10     3  3.74 4.90e-14  -200 1.36  -6.36     1     1     1      1     1     1
#> # ... with 3,594 more rows, and 3 more variables: flux <chr>, iface <dbl>,
#> #   delt <dbl>

# ddn
rmf_as_tibble(m$drawdown, m$dis, k = 1)

#> # A tibble: 400 x 12
#>       id  value        x     y   top  botm  time  nstp totim pertim  kper  kstp
#>    <dbl>  <dbl>    <dbl> <dbl> <dbl> <dbl> <dbl> <int> <dbl>  <dbl> <dbl> <dbl>
#>  1     1 0      5.51e-14  -100 0.105 -5.11     1     1     1      1     1     1
#>  2     1 0      6.12e-14     0 0.105 -5.11     1     1     1      1     1     1
#>  3     1 0      1.00e+ 2     0 0.105 -5.11     1     1     1      1     1     1
#>  4     1 0      1   e+ 2  -100 0.105 -5.11     1     1     1      1     1     1
#>  5     2 0.0673 4.90e-14  -200 0.952 -5.95     1     1     1      1     1     1
#>  6     2 0.0673 5.51e-14  -100 0.952 -5.95     1     1     1      1     1     1
#>  7     2 0.0673 1   e+ 2  -100 0.952 -5.95     1     1     1      1     1     1
#>  8     2 0.0673 1.00e+ 2  -200 0.952 -5.95     1     1     1      1     1     1
#>  9     3 0.0942 4.29e-14  -300 1.36  -6.36     1     1     1      1     1     1
#> 10     3 0.0942 4.90e-14  -200 1.36  -6.36     1     1     1      1     1     1
#> # ... with 390 more rows

# hed
rmf_as_tibble(m$head, m$dis, i = 2, as_points = TRUE)

#> # A tibble: 90 x 13
#>       id value     x     y     z   top   botm  time  nstp totim pertim  kper
#>    <dbl> <dbl> <dbl> <dbl> <dbl> <dbl>  <dbl> <dbl> <dbl> <dbl>  <dbl> <dbl>
#>  1     2  29.9  50.0 -150. -2.50 0.952  -5.95     1     1     1      1     1
#>  2    12  29.9 150   -150. -2.5  1.20   -6.20     1     1     1      1     1
#>  3    22  29.9 250   -150. -2.5  1.01   -6.01     1     1     1      1     1
#>  4    32  29.9 350   -150. -2.5  1.42   -6.42     1     1     1      1     1
#>  5    42  29.9 450   -150  -2.5  3.32   -8.32     1     1     1      1     1
#>  6    52  29.9 550   -150. -2.5  4.66   -9.66     1     1     1      1     1
#>  7    62  29.9 650   -150. -2.50 5.03  -10.0      1     1     1      1     1
#>  8    72  29.9 750   -150. -2.50 5.02  -10.0      1     1     1      1     1
#>  9    82  30.0 850   -150. -2.5  4.69   -9.69     1     1     1      1     1
#> 10    92  30   950   -150. -2.5  1.34   -6.34     1     1     1      1     1
#> # ... with 80 more rows, and 1 more variable: kstp <dbl>
rmf_as_tibble(m$head, m$dis, l = 1)

#> # A tibble: 3,600 x 12
#>       id value        x     y   top  botm  time  nstp totim pertim  kper  kstp
#>    <int> <dbl>    <dbl> <dbl> <dbl> <dbl> <dbl> <dbl> <dbl>  <dbl> <dbl> <dbl>
#>  1     1  30   5.51e-14  -100 0.105 -5.11     1     1     1      1     1     1
#>  2     1  30   6.12e-14     0 0.105 -5.11     1     1     1      1     1     1
#>  3     1  30   1.00e+ 2     0 0.105 -5.11     1     1     1      1     1     1
#>  4     1  30   1   e+ 2  -100 0.105 -5.11     1     1     1      1     1     1
#>  5     2  29.9 4.90e-14  -200 0.952 -5.95     1     1     1      1     1     1
#>  6     2  29.9 5.51e-14  -100 0.952 -5.95     1     1     1      1     1     1
#>  7     2  29.9 1   e+ 2  -100 0.952 -5.95     1     1     1      1     1     1
#>  8     2  29.9 1.00e+ 2  -200 0.952 -5.95     1     1     1      1     1     1
#>  9     3  29.9 4.29e-14  -300 1.36  -6.36     1     1     1      1     1     1
#> 10     3  29.9 4.90e-14  -200 1.36  -6.36     1     1     1      1     1     1
#> # ... with 3,590 more rows
rmf_as_tibble(m$head, m$dis, l = 1, j = 5, mask = m$bas$ibound)

#> # A tibble: 360 x 13
#>       id value     x     y     z   top  botm  time  nstp totim pertim  kper
#>    <dbl> <dbl> <dbl> <dbl> <dbl> <dbl> <dbl> <dbl> <dbl> <dbl>  <dbl> <dbl>
#>  1    41  29.9   450  -100 -6.13  1.13 -6.13     1     1     1      1     1
#>  2    41  29.9   450  -100  1.13  1.13 -6.13     1     1     1      1     1
#>  3    41  29.9   450     0  1.13  1.13 -6.13     1     1     1      1     1
#>  4    41  29.9   450     0 -6.13  1.13 -6.13     1     1     1      1     1
#>  5    42  29.9   450  -200 -8.32  3.32 -8.32     1     1     1      1     1
#>  6    42  29.9   450  -200  3.32  3.32 -8.32     1     1     1      1     1
#>  7    42  29.9   450  -100  3.32  3.32 -8.32     1     1     1      1     1
#>  8    42  29.9   450  -100 -8.32  3.32 -8.32     1     1     1      1     1
#>  9    43  29.9   450  -300 -9.92  4.92 -9.92     1     1     1      1     1
#> 10    43  29.9   450  -300  4.92  4.92 -9.92     1     1     1      1     1
#> # ... with 350 more rows, and 1 more variable: kstp <dbl>
# 2d array
rmf_as_tibble(m$dis$top, m$dis, id = FALSE)

#> # A tibble: 400 x 3
#>    value        x     y
#>    <dbl>    <dbl> <dbl>
#>  1 0.105 5.51e-14  -100
#>  2 0.105 6.12e-14     0
#>  3 0.105 1.00e+ 2     0
#>  4 0.105 1   e+ 2  -100
#>  5 0.952 4.90e-14  -200
#>  6 0.952 5.51e-14  -100
#>  7 0.952 1   e+ 2  -100
#>  8 0.952 1.00e+ 2  -200
#>  9 1.36  4.29e-14  -300
#> 10 1.36  4.90e-14  -200
#> # ... with 390 more rows

# 3d array
rmf_as_tibble(m$lpf$hk, m$dis)

#> # A tibble: 3,600 x 6
#>       id value        x     y   top  botm
#>    <int> <dbl>    <dbl> <dbl> <dbl> <dbl>
#>  1     1   100 5.51e-14  -100 0.105 -5.11
#>  2     1   100 6.12e-14     0 0.105 -5.11
#>  3     1   100 1.00e+ 2     0 0.105 -5.11
#>  4     1   100 1   e+ 2  -100 0.105 -5.11
#>  5     2   100 4.90e-14  -200 0.952 -5.95
#>  6     2   100 5.51e-14  -100 0.952 -5.95
#>  7     2   100 1   e+ 2  -100 0.952 -5.95
#>  8     2   100 1.00e+ 2  -200 0.952 -5.95
#>  9     3   100 4.29e-14  -300 1.36  -6.36
#> 10     3   100 4.90e-14  -200 1.36  -6.36
#> # ... with 3,590 more rows
rmf_as_tibble(m$lpf$hk, m$dis, as_points = TRUE, i = 5)

#> # A tibble: 90 x 7
#>       id value     x     y     z   top   botm
#>    <dbl> <dbl> <dbl> <dbl> <dbl> <dbl>  <dbl>
#>  1     5  90.0  50.0  -450 -2.5   1.33  -6.33
#>  2    15  87.2 150    -450 -2.5   1.45  -6.45
#>  3    25  84.4 250    -450 -2.5   4.60  -9.60
#>  4    35  81.6 350    -450 -2.5   5.04 -10.0 
#>  5    45  88.0 450    -450 -2.50  7.15 -12.2 
#>  6    55 104.  550    -450 -2.50  8.98 -14.0 
#>  7    65 119.  650    -450 -2.50  6.77 -11.8 
#>  8    75 137.  750    -450 -2.5   5.00 -10.0 
#>  9    85 140   850    -450 -2.5   2.34  -7.34
#> 10    95 140   950    -450 -2.5   1.16  -6.16
#> # ... with 80 more rows

# 4d array
r <- rmf_create_array(1:prod(dim(m$head)), dim = dim(m$head))
rmf_as_tibble(r, m$dis)

#> # A tibble: 3,600 x 8
#>       id value        x     y   top  botm  time  nstp
#>    <int> <dbl>    <dbl> <dbl> <dbl> <dbl> <dbl> <int>
#>  1     1     1 5.51e-14  -100 0.105 -5.11     1     1
#>  2     1     1 6.12e-14     0 0.105 -5.11     1     1
#>  3     1     1 1.00e+ 2     0 0.105 -5.11     1     1
#>  4     1     1 1   e+ 2  -100 0.105 -5.11     1     1
#>  5     2     2 4.90e-14  -200 0.952 -5.95     1     1
#>  6     2     2 5.51e-14  -100 0.952 -5.95     1     1
#>  7     2     2 1   e+ 2  -100 0.952 -5.95     1     1
#>  8     2     2 1.00e+ 2  -200 0.952 -5.95     1     1
#>  9     3     3 4.29e-14  -300 1.36  -6.36     1     1
#> 10     3     3 4.90e-14  -200 1.36  -6.36     1     1
#> # ... with 3,590 more rows
rmf_as_tibble(r, m$dis, l = 1)

#> # A tibble: 3,600 x 8
#>       id value        x     y   top  botm  time  nstp
#>    <int> <dbl>    <dbl> <dbl> <dbl> <dbl> <dbl> <int>
#>  1     1     1 5.51e-14  -100 0.105 -5.11     1     1
#>  2     1     1 6.12e-14     0 0.105 -5.11     1     1
#>  3     1     1 1.00e+ 2     0 0.105 -5.11     1     1
#>  4     1     1 1   e+ 2  -100 0.105 -5.11     1     1
#>  5     2     2 4.90e-14  -200 0.952 -5.95     1     1
#>  6     2     2 5.51e-14  -100 0.952 -5.95     1     1
#>  7     2     2 1   e+ 2  -100 0.952 -5.95     1     1
#>  8     2     2 1.00e+ 2  -200 0.952 -5.95     1     1
#>  9     3     3 4.29e-14  -300 1.36  -6.36     1     1
#> 10     3     3 4.90e-14  -200 1.36  -6.36     1     1
#> # ... with 3,590 more rows
rmf_as_tibble(r, m$dis, j = 5)

#> # A tibble: 360 x 9
#>       id value     x     y     z   top  botm  time  nstp
#>    <dbl> <dbl> <dbl> <dbl> <dbl> <dbl> <dbl> <dbl> <int>
#>  1    41    41   450  -100 -6.13  1.13 -6.13     1     1
#>  2    41    41   450  -100  1.13  1.13 -6.13     1     1
#>  3    41    41   450     0  1.13  1.13 -6.13     1     1
#>  4    41    41   450     0 -6.13  1.13 -6.13     1     1
#>  5    42    42   450  -200 -8.32  3.32 -8.32     1     1
#>  6    42    42   450  -200  3.32  3.32 -8.32     1     1
#>  7    42    42   450  -100  3.32  3.32 -8.32     1     1
#>  8    42    42   450  -100 -8.32  3.32 -8.32     1     1
#>  9    43    43   450  -300 -9.92  4.92 -9.92     1     1
#> 10    43    43   450  -300  4.92  4.92 -9.92     1     1
#> # ... with 350 more rows
# rmf_list
l <- m$chd$data
rmf_as_tibble(l, m$dis)

#> # A tibble: 88 x 10
#>       id shead ehead IFACE parameter name            x     y   top  botm
#>    <int> <dbl> <dbl> <dbl> <lgl>     <chr>       <dbl> <dbl> <dbl> <dbl>
#>  1     1 30    30        0 FALSE     list_1   5.51e-14 -100  0.105 -5.11
#>  2     1 30    30        0 FALSE     list_1   6.12e-14    0  0.105 -5.11
#>  3     1 30    30        0 FALSE     list_1   1.00e+ 2    0  0.105 -5.11
#>  4     1 30    30        0 FALSE     list_1   1   e+ 2 -100  0.105 -5.11
#>  5    91  0.05  0.05     0 TRUE      CHD_Par1 9   e+ 2 -100  1.00  -6.00
#>  6    91  0.05  0.05     0 TRUE      CHD_Par1 9   e+ 2    0  1.00  -6.00
#>  7    91  0.05  0.05     0 TRUE      CHD_Par1 1   e+ 3    0  1.00  -6.00
#>  8    91  0.05  0.05     0 TRUE      CHD_Par1 1   e+ 3 -100. 1.00  -6.00
#>  9    91  0.05  0.05     0 TRUE      CHD_Par1 9   e+ 2    0  1.00  -6.00
#> 10    91  0.05  0.05     0 TRUE      CHD_Par1 1   e+ 3    0  1.00  -6.00
#> # ... with 78 more rows
…
